^C:\USERS\ALEX\SOURCE\REPOS\DATA_STRUCTURES_AND_ALGORITHM\LAB2\LAB3\MY_STACK.CPP
/c /ZI /JMC /nologo /W3 /WX- /diagnostics:classic /sdl /Od /Oy- /D _MBCS /Gm- /EHsc /RTC1 /MDd /GS /fp:precise /permissive- /Zc:wchar_t /Zc:forScope /Zc:inline /Fo"DEBUG\\" /Fd"DEBUG\VC141.PDB" /Gd /TP /analyze- /FC C:\USERS\ALEX\SOURCE\REPOS\DATA_STRUCTURES_AND_ALGORITHM\LAB2\LAB3\MY_STACK.CPP
^C:\USERS\ALEX\SOURCE\REPOS\DATA_STRUCTURES_AND_ALGORITHM\LAB4\LAB4\GRAPH.CPP
/c /ZI /JMC /nologo /W3 /WX- /diagnostics:classic /sdl /Od /Oy- /D _MBCS /Gm- /EHsc /RTC1 /MDd /GS /permissive- /Zc:wchar_t /Zc:forScope /Zc:inline /Fo"DEBUG\\" /Fd"DEBUG\VC141.PDB" /Gd /TP /analyze- /FC C:\USERS\ALEX\SOURCE\REPOS\DATA_STRUCTURES_AND_ALGORITHM\LAB4\LAB4\GRAPH.CPP
^C:\USERS\ALEX\SOURCE\REPOS\DATA_STRUCTURES_AND_ALGORITHM\LAB4\LAB4\MY_LIST.CPP
/c /ZI /JMC /nologo /W3 /WX- /diagnostics:classic /sdl /Od /Oy- /D _MBCS /Gm- /EHsc /RTC1 /MDd /GS /permissive- /Zc:wchar_t /Zc:forScope /Zc:inline /Fo"DEBUG\\" /Fd"DEBUG\VC141.PDB" /Gd /TP /analyze- /FC C:\USERS\ALEX\SOURCE\REPOS\DATA_STRUCTURES_AND_ALGORITHM\LAB4\LAB4\MY_LIST.CPP
^C:\USERS\ALEX\SOURCE\REPOS\DATA_STRUCTURES_AND_ALGORITHM\LAB4\LAB4\MY_STACK.CPP
/c /ZI /JMC /nologo /W3 /WX- /diagnostics:classic /sdl /Od /Oy- /D _MBCS /Gm- /EHsc /RTC1 /MDd /GS /permissive- /Zc:wchar_t /Zc:forScope /Zc:inline /Fo"DEBUG\\" /Fd"DEBUG\VC141.PDB" /Gd /TP /analyze- /FC C:\USERS\ALEX\SOURCE\REPOS\DATA_STRUCTURES_AND_ALGORITHM\LAB4\LAB4\MY_STACK.CPP
^C:\USERS\ALEX\SOURCE\REPOS\DATA_STRUCTURES_AND_ALGORITHM\LAB4\LAB4\SOURCE.CPP
/c /ZI /JMC /nologo /W3 /WX- /diagnostics:classic /sdl /Od /Oy- /D _MBCS /Gm- /EHsc /RTC1 /MDd /GS /permissive- /Zc:wchar_t /Zc:forScope /Zc:inline /Fo"DEBUG\\" /Fd"DEBUG\VC141.PDB" /Gd /TP /analyze- /FC C:\USERS\ALEX\SOURCE\REPOS\DATA_STRUCTURES_AND_ALGORITHM\LAB4\LAB4\SOURCE.CPP
